[
    {
        "key": "ctrl+j",
        "command": "-extension.vim_ctrl+j",
        "when": "editorTextFocus && vim.active && vim.use<C-j> && !inDebugRepl",
    },
    {
        "key": "ctrl+w",
        "command": "-extension.vim_ctrl+w",
        "when": "editorTextFocus && vim.active && vim.use<C-w> && !inDebugRepl",
    },
    {
        "key": "ctrl+b",
        "command": "-workbench.action.toggleSidebarVisibility"
    },
    {
        "key": "alt+h",
        "command": "workbench.action.toggleSidebarVisibility"
    },
    {
        "key": "alt+h",
        "command": "-testing.toggleTestingPeekHistory",
        "when": "testing.isPeekVisible"
    },
    {
        "key": "space",
        "command": "editor.toggleFold",
        "when": "editorTextFocus && foldingEnabled"
    },
    {
        "key": "ctrl+k ctrl+l",
        "command": "-editor.toggleFold",
        "when": "editorTextFocus && foldingEnabled"
    },
    {
        "key": "space",
        "command": "-breadcrumbs.revealFocused",
        "when": "breadcrumbsActive && breadcrumbsVisible"
    },
    {
        "key": "space",
        "command": "-debug.toggleBreakpoint",
        "when": "breakpointsFocused && !inputFocus"
    }
]